05.12.2018 21:50:36 - 1544064636 - 192.168.99.1 - http://test1.ru - http://tds.test1.ru/esd.php -  - 1 -  - r=some_special_bdfknqtuwy - no - Mozilla/5.0 (Windows NT 10.0; Win64; x64) AppleWebKit/537.36 (KHTML, like Gecko) Chrome/70.0.3538.102 Safari/537.36 OPR/57.0.3098.76
05.12.2018 21:50:43 - 1544064643 - 192.168.99.1 - http://test1.ru - http://tds.test1.ru/esd.php -  - 1 -  - r=some_special_bdfknqtuwy - no - Mozilla/5.0 (Windows NT 10.0; Win64; x64) AppleWebKit/537.36 (KHTML, like Gecko) Chrome/70.0.3538.102 Safari/537.36 OPR/57.0.3098.76
05.12.2018 21:52:16 - 1544064736 - 192.168.99.1 - http://test1.ru - http://tds.test1.ru/esd.php -  - 1 -  - r=some_special_bdfknqtuwy - no - Mozilla/5.0 (Windows NT 10.0; Win64; x64) AppleWebKit/537.36 (KHTML, like Gecko) Chrome/70.0.3538.102 Safari/537.36 OPR/57.0.3098.76
05.12.2018 21:52:58 - 1544064778 - 192.168.99.1 - http://test1.ru - http://tds.test1.ru/esd.php -  - 1 -  - r=some_special_bdfknqtuwy - no - Mozilla/5.0 (Windows NT 10.0; Win64; x64) AppleWebKit/537.36 (KHTML, like Gecko) Chrome/70.0.3538.102 Safari/537.36 OPR/57.0.3098.76
05.12.2018 21:53:29 - 1544064809 - 192.168.99.1 - http://test1.ru - http://tds.test1.ru/esd.php -  - 1 -  - r=some_special_bdfknqtuwy - no - Mozilla/5.0 (Windows NT 10.0; Win64; x64) AppleWebKit/537.36 (KHTML, like Gecko) Chrome/70.0.3538.102 Safari/537.36 OPR/57.0.3098.76
05.12.2018 21:54:06 - 1544064846 - 192.168.99.1 - http://test1.ru - http://tds.test1.ru/esd.php -  - 1 -  - r=some_special_bdfknqtuwy - no - Mozilla/5.0 (Windows NT 10.0; Win64; x64) AppleWebKit/537.36 (KHTML, like Gecko) Chrome/70.0.3538.102 Safari/537.36 OPR/57.0.3098.76
05.12.2018 21:55:40 - 1544064940 - 192.168.99.1 - http://test1.ru - http://tds.test1.ru/esd.php -  - 1 -  - r=some_special_bdfknqtuwy - no - Mozilla/5.0 (Windows NT 10.0; Win64; x64) AppleWebKit/537.36 (KHTML, like Gecko) Chrome/70.0.3538.102 Safari/537.36 OPR/57.0.3098.76
05.12.2018 22:07:38 - 1544065658 - 192.168.99.1 - http://test1.ru - http://tds.test1.ru/esd.php -  - 1 -  - r=some_special_bdfknqtuwy - no - Mozilla/5.0 (Windows NT 10.0; Win64; x64) AppleWebKit/537.36 (KHTML, like Gecko) Chrome/70.0.3538.102 Safari/537.36 OPR/57.0.3098.76
05.12.2018 22:19:04 - 1544066344 - 192.168.99.1 - rurl://10 - http://tds.test1.ru/esd.php -  - 1 -  - r=some_special_bdfknqtuwy - no - Mozilla/5.0 (Windows NT 10.0; Win64; x64) AppleWebKit/537.36 (KHTML, like Gecko) Chrome/70.0.3538.102 Safari/537.36 OPR/57.0.3098.76
05.12.2018 22:19:16 - 1544066356 - 192.168.99.1 - rurl://10 - http://tds.test1.ru/esd.php -  - 1 -  - r=some_special_bdfknqtuwy - no - Mozilla/5.0 (Windows NT 10.0; Win64; x64) AppleWebKit/537.36 (KHTML, like Gecko) Chrome/70.0.3538.102 Safari/537.36 OPR/57.0.3098.76
05.12.2018 22:19:49 - 1544066389 - 192.168.99.1 - rurl://10 - http://tds.test1.ru/esd.php -  - 1 -  - r=some_special_bdfknqtuwy - no - Mozilla/5.0 (Windows NT 10.0; Win64; x64) AppleWebKit/537.36 (KHTML, like Gecko) Chrome/70.0.3538.102 Safari/537.36 OPR/57.0.3098.76
05.12.2018 22:22:34 - 1544066554 - 192.168.99.1 - rurl://10 - http://tds.test1.ru/esd.php -  - 1 -  - r=some_special_bdfknqtuwy - no - Mozilla/5.0 (Windows NT 10.0; Win64; x64) AppleWebKit/537.36 (KHTML, like Gecko) Chrome/70.0.3538.102 Safari/537.36 OPR/57.0.3098.76
05.12.2018 22:24:53 - 1544066693 - 192.168.99.1 - rurl://10 - http://tds.local/esd.php -  - 1 -  - r=some_special_bdfknqtuwy - no - Mozilla/5.0 (Windows NT 10.0; Win64; x64) AppleWebKit/537.36 (KHTML, like Gecko) Chrome/70.0.3538.102 Safari/537.36 OPR/57.0.3098.76
06.12.2018 02:57:56 - 1544083076 - 192.168.99.1 - rurl://10 - http://tds.test1.ru/esd.php -  - 1 -  - r=some_special_bdfknqtuwy - no - Mozilla/5.0 (Windows NT 10.0; Win64; x64) AppleWebKit/537.36 (KHTML, like Gecko) Chrome/70.0.3538.102 Safari/537.36 OPR/57.0.3098.76
